…
## show
df

# A tibble: 100 x 4
      id   age sibage parage
   <int> <dbl>  <dbl>  <dbl>
 1     1    16      6     49
 2     2   -97     11     50
 3     3    14      5     53
 4     4    15     11     51
 5     5    18      8    -99
 6     6    17    -98     45
 7     7    15      6     51
 8     8    14     12     52
 9     9    14    -98     48
10    10    15      9     53
# ... with 90 more rows
…
