…
## show
df

## # A tibble: 100 x 4
##       id   age sibage parage
##    <int> <dbl>  <dbl>  <dbl>
##  1     1  15.0   6.00  -99.0
##  2     2  12.0  10.0    50.0
##  3     3 -97.0   6.00   49.0
##  4     4  15.0  11.0    51.0
##  5     5  13.0  10.0    45.0
##  6     6  20.0   8.00   46.0
##  7     7  18.0  10.0    45.0
##  8     8  18.0 -98.0    53.0
##  9     9  19.0  11.0    52.0
## 10    10  20.0  10.0    52.0
## # ... with 90 more rows
…
