…
Unfortunately, the label for the `bysex` column doesn’t really tell us
anything that we probably didn’t already guess. The problem with the
name and label is that it is ambiguous. So are the values:

``` r
## who first few rows of bysex
df %>% select(bysex)
```

    ## # A tibble: 16,160 x 1
    ##    bysex    
    ##    <dbl+lbl>
    ##  1 2        
    ##  2 2        
    ##  3 2        
    ##  4 2        
    ##  5 2        
    ##  6 1        
    ##  7 1        
    ##  8 1        
    ##  9 1        
    ## 10 1        
    ## # ... with 16,150 more rows
…
