…
## show
df
```

    ## # A tibble: 100 x 4
    ##       id   age sibage parage
    ##    <int> <dbl>  <dbl>  <dbl>
    ##  1     1  11.0 -98.0    48.0
    ##  2     2  17.0  10.0    45.0
    ##  3     3  19.0   6.00   50.0
    ##  4     4  11.0   6.00   50.0
    ##  5     5  17.0   6.00   52.0
    ##  6     6  19.0   7.00   53.0
    ##  7     7  20.0  12.0    48.0
    ##  8     8  20.0   7.00   50.0
    ##  9     9  11.0   9.00   45.0
    ## 10    10  19.0   6.00   55.0
    ## # ... with 90 more rows
…
