…
## show
df
```

    # A tibble: 100 x 4
          id   age sibage parage
       <int> <dbl>  <dbl>  <dbl>
     1     1  -97.     7.    50.
     2     2   12.     5.    46.
     3     3   11.     7.    50.
     4     4   13.     6.    45.
     5     5   15.     7.    46.
     6     6  -97.    11.    47.
     7     7   17.    10.    49.
     8     8   13.    10.    47.
     9     9  -97.    10.    50.
    10    10   14.     8.    54.
    # ... with 90 more rows
…
