…
## Select

To choose variables, either when making a new data frame or dropping
them, use `select()`. Without assignment (because we would change our
data object and we don’t want to), let’s use `select()` to view the
first few rows of the student and school ids.

``` r
## just view first few rows of stu_id and sch_id (no assignment)
df %>% select(stu_id, sch_id)
```

    # A tibble: 16,160 x 2
       stu_id sch_id
        <int>  <int>
     1 101101   1011
     2 101102   1011
     3 101104   1011
     4 101105   1011
     5 101106   1011
     6 101107   1011
     7 101108   1011
     8 101109   1011
     9 101110   1011
    10 101111   1011
    # ... with 16,150 more rows
…
``` r
## create new data frame
sch_m <- df %>%
    ## (1) make test score values < 0 into NAs
    mutate(bynels2m = ifelse(bynels2m < 0, NA, bynels2m)) %>%
    ## (2) group by school ID
    group_by(sch_id) %>%
    ## (3) get the average math score, removing missing values
    summarise(sch_bynels2m = mean(bynels2m, na.rm = TRUE))

## show
sch_m
```

    # A tibble: 751 x 2
       sch_id sch_bynels2m
        <int>        <dbl>
     1   1011         45.3
     2   1012         43.3
     3   1021         28.9
     4   1022         38.6
     5   1031         40.0
     6   1032         35.3
     7   1033         42.2
     8   1041         44.9
     9   1042         52.2
    10   1051         45.9
    # ... with 741 more rows
…
