…
``` r
## create new data frame
df_sch <- df %>%
    ## first, make test score values < 0 == NA
    mutate(bynels2m = ifelse(bynels2m < 0, NA, bynels2m)) %>%
    ## group by school ID
    group_by(sch_id) %>%
    ## summarize
    summarise(sch_bynels2m = mean(bynels2m, na.rm = TRUE))

## show
df_sch
```

    ## # A tibble: 751 x 2
    ##    sch_id sch_bynels2m
    ##     <int>        <dbl>
    ##  1   1011         45.3
    ##  2   1012         43.3
    ##  3   1021         28.9
    ##  4   1022         38.6
    ##  5   1031         40.0
    ##  6   1032         35.3
    ##  7   1033         42.2
    ##  8   1041         44.9
    ##  9   1042         52.2
    ## 10   1051         45.9
    ## # ... with 741 more rows
…
